…
    ℹ Use `spec()` to retrieve the full column specification for this data.
    ℹ Specify the column types or set `show_col_types = FALSE` to quiet this message.

``` r
# Putting each song's metadata in separate columns
lyrics$track_type = str_extract(lyrics$file, "Title|Nontitle")
lyrics$album_year = str_extract(lyrics$file, "15|20|23|24")
lyrics$song_title = str_extract(lyrics$file, "[Title|Nontitle|15|20|23|24]")
lyrics
```

    # A tibble: 1,582 × 5
       file                    Lyrics               track_type album_year song_title
       <chr>                   <chr>                <chr>      <chr>      <chr>     
     1 Nontitle_Ah_Yeah_15.csv 아 예 아 예 근데 뭐라구요?…… Nontitle   15         N         
     2 Nontitle_Ah_Yeah_15.csv Yo $. Coup$, Here’s… Nontitle   15         N         
     3 Nontitle_Ah_Yeah_15.csv 등장과 동시에 들러리들 바닥에서…… Nontitle   15         N         
     4 Nontitle_Ah_Yeah_15.csv 침 흘리며 기절 그 위에서 수영해요… Nontitle   15         N         
     5 Nontitle_Ah_Yeah_15.csv WOAH 옆구리 지방튜브 끼고 못 … Nontitle   15         N         
     6 Nontitle_Ah_Yeah_15.csv 애들이 알리 있나     Nontitle   15         N         
     7 Nontitle_Ah_Yeah_15.csv 못 뜬 이유 절대 모름 (Don’t… Nontitle   15         N         
     8 Nontitle_Ah_Yeah_15.csv 맞출 생각 없어       Nontitle   15         N         
     9 Nontitle_Ah_Yeah_15.csv 니 식견에 날 맞추지 말길…… Nontitle   15         N         
    10 Nontitle_Ah_Yeah_15.csv 막 귀들 방구석 박혀 밖에 나오질 … Nontitle   15         N         
    # ℹ 1,572 more rows
…
